<?xml version="1.0" encoding="UTF-8"?>
<session version="1.0">
<refactoring comment="Rename type &apos;com.example.floricultura.data.Mdepartamaento&apos; to &apos;Mdepartamento&apos;&#x0D;&#x0A;- Original project: &apos;floricultura&apos;&#x0D;&#x0A;- Original element: &apos;com.example.floricultura.data.Mdepartamaento&apos;&#x0D;&#x0A;- Renamed element: &apos;com.example.floricultura.data.Mdepartamento&apos;&#x0D;&#x0A;- Update references to refactored element&#x0D;&#x0A;- Update textual occurrences in comments and strings" description="Rename type &apos;Mdepartamaento&apos;" flags="589830" id="org.eclipse.jdt.ui.rename.type" input="/src&lt;com.example.floricultura.data{Mdepartamaento.java[Mdepartamaento" matchStrategy="1" name="Mdepartamento" qualified="false" references="true" similarDeclarations="false" stamp="1494539485325" textual="false" version="1.0"/>
</session>